…
    ## Warning: There were 44 warnings in `mutate()`.
    ## The first warning was:
    ## ℹ In argument: `results = map(models, broom::tidy, conf.int = TRUE)`.
    ## ℹ In group 1: `city_state = "Albuquerque, NM"`.
    ## Caused by warning:
    ## ! glm.fit: fitted probabilities numerically 0 or 1 occurred
    ## ℹ Run `dplyr::last_dplyr_warnings()` to see the 43 remaining warnings.

``` r
citys_ml
```

    ## # A tibble: 46 × 11
    ## # Groups:   city_state [46]
    ##    city_state     term  estimate std.error statistic  p.value conf.low conf.high
    ##    <chr>          <chr>    <dbl>     <dbl>     <dbl>    <dbl>    <dbl>     <dbl>
    ##  1 Albuquerque, … vict…  5.70e-1     0.385  1.48     1.39e- 1   -0.193    1.32  
    ##  2 Atlanta, GA    vict…  7.71e-5     0.194  0.000397 1.00e+ 0   -0.385    0.377 
    ##  3 Baltimore, MD  vict… -8.54e-1     0.138 -6.18     6.26e-10   -1.13    -0.584 
    ##  4 Baton Rouge, … vict… -9.64e-1     0.306 -3.15     1.65e- 3   -1.59    -0.380 
    ##  5 Birmingham, AL vict… -1.39e-1     0.212 -0.657    5.11e- 1   -0.560    0.273 
    ##  6 Boston, MA     vict… -3.95e-1     0.326 -1.21     2.26e- 1   -1.04     0.244 
    ##  7 Buffalo, NY    vict… -6.53e-1     0.299 -2.18     2.90e- 2   -1.24    -0.0663
    ##  8 Charlotte, NC  vict… -1.23e-1     0.236 -0.524    6.00e- 1   -0.596    0.330 
    ##  9 Chicago, IL    vict… -8.91e-1     0.102 -8.77     1.86e-18   -1.09    -0.691 
    ## 10 Cincinnati, OH vict… -9.17e-1     0.269 -3.41     6.49e- 4   -1.46    -0.405 
    ## # ℹ 36 more rows
    ## # ℹ 3 more variables: OR <dbl>, exp_conf_low <dbl>, exp_conf_high <dbl>
…
